waveform.vcd
$date
	Sat Dec 14 22:19:39 2024
$end
$version
	Icarus Verilog
$end
$timescale
	1s
$end
$scope module tp_top $end
$var reg 1 ! clk $end
$var reg 1 " rst $end
$scope module uut $end
$var wire 1 ! clk $end
$var wire 1 " rst $end
$var wire 1 # zero_top $end
$var wire 32 $ read_data2_top [31:0] $end
$var wire 32 % read_data1_top [31:0] $end
$var wire 32 & instruction_top [31:0] $end
$var wire 1 ' branch_top $end
$var wire 1 ( and_out_top $end
$var wire 32 ) address_top [31:0] $end
$var wire 32 * WriteBack_top [31:0] $end
$var wire 32 + Sum_out [31:0] $end
$var wire 1 , RegWrite_top $end
$var wire 32 - PCin_top [31:0] $end
$var wire 32 . PC_top [31:0] $end
$var wire 32 / NextoPC_top [31:0] $end
$var wire 1 0 MemtoReg_top $end
$var wire 32 1 Memdata_top [31:0] $end
$var wire 1 2 MemWrite_top $end
$var wire 1 3 MemRead_top $end
$var wire 32 4 ImmExt_top [31:0] $end
$var wire 32 5 ALU_mux_out [31:0] $end
$var wire 4 6 ALU_Control_out [3:0] $end
$var wire 1 7 ALUSrc_top $end
$var wire 2 8 ALUOp_top [1:0] $end
$scope module ALU $end
$var wire 4 9 Control_in [3:0] $end
$var wire 32 : B [31:0] $end
$var wire 32 ; A [31:0] $end
$var reg 32 < ALU_Result [31:0] $end
$var reg 1 # zero $end
$upscope $end
$scope module ALU_Control $end
$var wire 3 = fun3 [2:0] $end
$var wire 1 > fun7 $end
$var wire 2 ? ALUOp [1:0] $end
$var reg 4 @ Control_out [3:0] $end
$upscope $end
$scope module ALU_mux $end
$var wire 1 7 sel1 $end
$var wire 32 A Mux_out [31:0] $end
$var wire 32 B B1 [31:0] $end
$var wire 32 C A1 [31:0] $end
$upscope $end
$scope module AND $end
$var wire 1 ( and_out $end
$var wire 1 # zero $end
$var wire 1 ' branch $end
$upscope $end
$scope module Adder $end
$var wire 32 D in_2 [31:0] $end
$var wire 32 E in_1 [31:0] $end
$var wire 32 F Sum_out [31:0] $end
$upscope $end
$scope module Adder_mux $end
$var wire 32 G B1 [31:0] $end
$var wire 1 ( sel1 $end
$var wire 32 H Mux_out [31:0] $end
$var wire 32 I A1 [31:0] $end
$upscope $end
$scope module Control_Unit $end
$var wire 7 J instruction [6:0] $end
$var reg 2 K ALUOp [1:0] $end
$var reg 1 7 ALUSrc $end
$var reg 1 ' Branch $end
$var reg 1 3 MemRead $end
$var reg 1 2 MemWrite $end
$var reg 1 0 MemtoReg $end
$var reg 1 , RegWrite $end
$upscope $end
$scope module Data_mem $end
$var wire 1 3 MemRead $end
$var wire 1 2 MemWrite $end
$var wire 32 L address [31:0] $end
$var wire 1 ! clk $end
$var wire 1 " rst $end
$var wire 32 M Write_data [31:0] $end
$var wire 32 N MemData_out [31:0] $end
$var integer 32 O k [31:0] $end
$upscope $end
$scope module ImmGen $end
$var wire 7 P Opcode [6:0] $end
$var wire 32 Q instruction [31:0] $end
$var reg 32 R ImmExt [31:0] $end
$upscope $end
$scope module Inst_Memory $end
$var wire 1 ! clk $end
$var wire 32 S instruction_out [31:0] $end
$var wire 1 " rst $end
$var wire 32 T read_address [31:0] $end
$var integer 32 U k [31:0] $end
$upscope $end
$scope module Memory_mux $end
$var wire 32 V A1 [31:0] $end
$var wire 32 W B1 [31:0] $end
$var wire 1 0 sel1 $end
$var wire 32 X Mux_out [31:0] $end
$upscope $end
$scope module PC $end
$var wire 32 Y PC_in [31:0] $end
$var wire 1 ! clk $end
$var wire 1 " rst $end
$var reg 32 Z PC_out [31:0] $end
$upscope $end
$scope module PC_Adder $end
$var wire 32 [ fromPC [31:0] $end
$var wire 32 \ NextoPC [31:0] $end
$upscope $end
$scope module Reg_File $end
$var wire 5 ] Rd [4:0] $end
$var wire 1 , RegWrite $end
$var wire 5 ^ Rs1 [4:0] $end
$var wire 5 _ Rs2 [4:0] $end
$var wire 32 ` Write_data [31:0] $end
$var wire 1 ! clk $end
$var wire 32 a read_data1 [31:0] $end
$var wire 32 b read_data2 [31:0] $end
$var wire 1 " rst $end
$upscope $end
$upscope $end
$upscope $end
$enddefinitions $end
$comment Show the parameter values. $end
$dumpall
$end
#0
$dumpvars
b0 b
b0 a
b0 `
b0 _
b0 ^
b0 ]
b100 \
b0 [
b0 Z
b100 Y
b0 X
b0 W
b0 V
b1000000 U
b0 T
b0 S
b0 R
b0 Q
b0 P
b1000000 O
b0 N
b0 M
b0 L
b0 K
b0 J
b100 I
b100 H
b0 G
b0 F
b0 E
b0 D
b0 C
b0 B
b0 A
b10 @
b0 ?
0>
b0 =
b0 <
b0 ;
b0 :
b10 9
b0 8
07
b10 6
b0 5
b0 4
03
02
b0 1
00
b100 /
b0 .
b100 -
0,
b0 +
b0 *
b0 )
0(
0'
b0 &
b0 %
b0 $
0#
1"
0!
$end
#5
b1101001 *
b1101001 X
b1101001 `
1,
b10 8
b10 ?
b10 K
b1101001 )
b1101001 <
b1101001 L
b1101001 V
b1000001 5
b1000001 :
b1000001 A
b1000 -
b1000 H
b1000 Y
b110011 J
b110011 P
b1101 ]
b1000001 $
b1000001 C
b1000001 M
b1000001 b
b11001 _
b101000 %
b101000 ;
b101000 a
b10000 ^
b1000 /
b1000 I
b1000 \
b1100110000000011010110011 &
b1100110000000011010110011 Q
b1100110000000011010110011 S
b100 +
b100 F
b100 G
b100 .
b100 E
b100 T
b100 Z
b100 [
1!
0"
#10
0!
#15
b11111111111111111111111111110110 *
b11111111111111111111111111110110 X
b11111111111111111111111111110110 `
b110 6
b110 9
b110 @
b11111111111111111111111111110110 )
b11111111111111111111111111110110 <
b11111111111111111111111111110110 L
b11111111111111111111111111110110 V
b1100 5
b1100 :
b1100 A
b1100 -
b1100 H
b1100 Y
1>
b101 ]
b1100 $
b1100 C
b1100 M
b1100 b
b11 _
b10 %
b10 ;
b10 a
b1000 ^
b1100 /
b1100 I
b1100 \
b1000000001101000000001010110011 &
b1000000001101000000001010110011 Q
b1000000001101000000001010110011 S
b1000 +
b1000 F
b1000 G
b1000 .
b1000 E
b1000 T
b1000 Z
b1000 [
1!
#20
0!
#25
b0 *
b0 X
b0 `
b0 )
b0 <
b0 L
b0 V
b0 6
b0 9
b0 @
b10000 -
b10000 H
b10000 Y
b111 =
0>
b1 ]
b10 ^
b10000 /
b10000 I
b10000 \
b1100010111000010110011 &
b1100010111000010110011 Q
b1100010111000010110011 S
b1100 +
b1100 F
b1100 G
b1100 .
b1100 E
b1100 T
b1100 Z
b1100 [
1!
#30
0!
#35
b11111111111111111111111111111110 *
b11111111111111111111111111111110 X
b11111111111111111111111111111110 `
b1 6
b1 9
b1 @
b11111111111111111111111111111110 )
b11111111111111111111111111111110 <
b11111111111111111111111111111110 L
b11111111111111111111111111111110 V
b11111111111111111111111111110110 5
b11111111111111111111111111110110 :
b11111111111111111111111111110110 A
b10100 -
b10100 H
b10100 Y
b110 =
b100 ]
b11111111111111111111111111110110 $
b11111111111111111111111111110110 C
b11111111111111111111111111110110 M
b11111111111111111111111111110110 b
b101 _
b1100 %
b1100 ;
b1100 a
b11 ^
b10100 /
b10100 I
b10100 \
b10100011110001000110011 &
b10100011110001000110011 Q
b10100011110001000110011 S
b10000 +
b10000 F
b10000 G
b10000 .
b10000 E
b10000 T
b10000 Z
b10000 [
1!
#40
0!
#45
b1010011 *
b1010011 X
b1010011 `
b10 6
b10 9
b10 @
17
b0 8
b0 ?
b0 K
b11 4
b11 B
b11 D
b11 R
b1010011 )
b1010011 <
b1010011 L
b1010011 V
b11 5
b11 :
b11 A
b11000 -
b11000 H
b11000 Y
b0 =
b10011 J
b10011 P
b10110 ]
b1100 $
b1100 C
b1100 M
b1100 b
b11 _
b1010000 %
b1010000 ;
b1010000 a
b10101 ^
b11000 /
b11000 I
b11000 \
b1110101000101100010011 &
b1110101000101100010011 Q
b1110101000101100010011 S
b10111 +
b10111 F
b10111 G
b10100 .
b10100 E
b10100 T
b10100 Z
b10100 [
1!
#50
0!
#55
b11 *
b11 X
b11 `
b1 5
b1 :
b1 A
b1 6
b1 9
b1 @
b11 )
b11 <
b11 L
b11 V
b1 4
b1 B
b1 D
b1 R
b11100 -
b11100 H
b11100 Y
b110 =
b1001 ]
b0 $
b0 C
b0 M
b0 b
b1 _
b10 %
b10 ;
b10 a
b1000 ^
b11100 /
b11100 I
b11100 \
b101000110010010010011 &
b101000110010010010011 Q
b101000110010010010011 S
b11001 +
b11001 F
b11001 G
b11000 .
b11000 E
b11000 T
b11000 Z
b11000 [
1!
#60
0!
#65
b111000 1
b111000 N
b111000 W
b10001 )
b10001 <
b10001 L
b10001 V
b111000 *
b111000 X
b111000 `
b1111 5
b1111 :
b1111 A
b10 6
b10 9
b10 @
10
13
b1111 4
b1111 B
b1111 D
b1111 R
b100000 -
b100000 H
b100000 Y
b10 =
b11 J
b11 P
b1000 ]
b11110 $
b11110 C
b11110 M
b11110 b
b1111 _
b10 ^
b100000 /
b100000 I
b100000 \
b111100010010010000000011 &
b111100010010010000000011 Q
b111100010010010000000011 S
b101011 +
b101011 F
b101011 G
b11100 .
b11100 E
b11100 T
b11100 Z
b11100 [
1!
#70
0!
#75
b1000001 *
b1000001 X
b1000001 `
b1000001 1
b1000001 N
b1000001 W
b11 5
b11 :
b11 A
b1111 )
b1111 <
b1111 L
b1111 V
b11 4
b11 B
b11 D
b11 R
b100100 -
b100100 H
b100100 Y
b1001 ]
b1100 $
b1100 C
b1100 M
b1100 b
b11 _
b1100 %
b1100 ;
b1100 a
b11 ^
b100100 /
b100100 I
b100100 \
b1100011010010010000011 &
b1100011010010010000011 Q
b1100011010010010000011 S
b100011 +
b100011 F
b100011 G
b100000 .
b100000 E
b100000 T
b100000 Z
b100000 [
1!
#80
0!
#85
b11000 )
b11000 <
b11000 L
b11000 V
b11000 *
b11000 X
b11000 `
b0 1
b0 N
b0 W
b1100 5
b1100 :
b1100 A
00
0,
03
12
b1100 4
b1100 B
b1100 D
b1100 R
b101000 -
b101000 H
b101000 Y
b100011 J
b100011 P
b1100 ]
b11110 $
b11110 C
b11110 M
b11110 b
b1111 _
b101000 /
b101000 I
b101000 \
b111100011010011000100011 &
b111100011010011000100011 Q
b111100011010011000100011 S
b110000 +
b110000 F
b110000 G
b100100 .
b100100 E
b100100 T
b100100 Z
b100100 [
1!
#90
0!
#95
b110110 *
b110110 X
b110110 `
b1010 5
b1010 :
b1010 A
b110110 )
b110110 <
b110110 L
b110110 V
b1010 4
b1010 B
b1010 D
b1010 R
b101100 -
b101100 H
b101100 Y
b1010 ]
b10100 $
b10100 C
b10100 M
b10100 b
b1110 _
b101100 %
b101100 ;
b101100 a
b110 ^
b101100 /
b101100 I
b101100 \
b111000110010010100100011 &
b111000110010010100100011 Q
b111000110010010100100011 S
b110010 +
b110010 F
b110010 G
b101000 .
b101000 E
b101000 T
b101000 Z
b101000 [
1!
#100
0!
#105
1(
1#
b110 6
b110 9
b110 @
b0 *
b0 X
b0 `
b1000001 5
b1000001 :
b1000001 A
07
10
02
1'
b1 8
b1 ?
b1 K
b0 )
b0 <
b0 L
b0 V
b1100 4
b1100 B
b1100 D
b1100 R
b111000 -
b111000 H
b111000 Y
b0 =
b1100011 J
b1100011 P
b1100 ]
b1000001 $
b1000001 C
b1000001 M
b1000001 b
b1001 _
b1000001 %
b1000001 ;
b1000001 a
b1001 ^
b110000 /
b110000 I
b110000 \
b100101001000011001100011 &
b100101001000011001100011 Q
b100101001000011001100011 S
b111000 +
b111000 F
b111000 G
b101100 .
b101100 E
b101100 T
b101100 Z
b101100 [
1!
#110
0!
#115
b10 6
b10 9
b10 @
0(
00
0'
b0 8
b0 ?
b0 K
b0 )
b0 <
b0 L
b0 V
0#
b0 4
b0 B
b0 D
b0 R
b0 5
b0 :
b0 A
b0 J
b0 P
b0 ]
b0 $
b0 C
b0 M
b0 b
b0 _
b0 %
b0 ;
b0 a
b0 ^
b111100 -
b111100 H
b111100 Y
b111100 /
b111100 I
b111100 \
b0 &
b0 Q
b0 S
b111000 +
b111000 F
b111000 G
b111000 .
b111000 E
b111000 T
b111000 Z
b111000 [
1!
#120
0!
#125
b1000000 -
b1000000 H
b1000000 Y
b1000000 /
b1000000 I
b1000000 \
b111100 +
b111100 F
b111100 G
b111100 .
b111100 E
b111100 T
b111100 Z
b111100 [
1!
#130
0!
#135
bx *
bx X
bx `
bx )
bx <
bx L
bx V
bx 5
bx :
bx A
b1000100 -
b1000100 H
b1000100 Y
bx =
x>
bx J
bx P
bx ]
bx $
bx C
bx M
bx b
bx _
bx %
bx ;
bx a
bx ^
b1000100 /
b1000100 I
b1000100 \
bx &
bx Q
bx S
b1000000 +
b1000000 F
b1000000 G
b1000000 .
b1000000 E
b1000000 T
b1000000 Z
b1000000 [
1!
#140
0!
#145
b1001000 -
b1001000 H
b1001000 Y
b1001000 /
b1001000 I
b1001000 \
b1000100 +
b1000100 F
b1000100 G
b1000100 .
b1000100 E
b1000100 T
b1000100 Z
b1000100 [
1!
#150
0!
#155
b1001100 -
b1001100 H
b1001100 Y
b1001100 /
b1001100 I
b1001100 \
b1001000 +
b1001000 F
b1001000 G
b1001000 .
b1001000 E
b1001000 T
b1001000 Z
b1001000 [
1!
#160
0!
#165
b1010000 -
b1010000 H
b1010000 Y
b1010000 /
b1010000 I
b1010000 \
b1001100 +
b1001100 F
b1001100 G
b1001100 .
b1001100 E
b1001100 T
b1001100 Z
b1001100 [
1!
#170
0!
#175
b1010100 -
b1010100 H
b1010100 Y
b1010100 /
b1010100 I
b1010100 \
b1010000 +
b1010000 F
b1010000 G
b1010000 .
b1010000 E
b1010000 T
b1010000 Z
b1010000 [
1!
#180
0!
#185
b1011000 -
b1011000 H
b1011000 Y
b1011000 /
b1011000 I
b1011000 \
b1010100 +
b1010100 F
b1010100 G
b1010100 .
b1010100 E
b1010100 T
b1010100 Z
b1010100 [
1!
#190
0!
#195
b1011100 -
b1011100 H
b1011100 Y
b1011100 /
b1011100 I
b1011100 \
b1011000 +
b1011000 F
b1011000 G
b1011000 .
b1011000 E
b1011000 T
b1011000 Z
b1011000 [
1!
#200
0!
#205
b1100000 -
b1100000 H
b1100000 Y
b1100000 /
b1100000 I
b1100000 \
b1011100 +
b1011100 F
b1011100 G
b1011100 .
b1011100 E
b1011100 T
b1011100 Z
b1011100 [
1!
#210
0!
#215
b1100100 -
b1100100 H
b1100100 Y
b1100100 /
b1100100 I
b1100100 \
b1100000 +
b1100000 F
b1100000 G
b1100000 .
b1100000 E
b1100000 T
b1100000 Z
b1100000 [
1!
#220
0!
#225
b1101000 -
b1101000 H
b1101000 Y
b1101000 /
b1101000 I
b1101000 \
b1100100 +
b1100100 F
b1100100 G
b1100100 .
b1100100 E
b1100100 T
b1100100 Z
b1100100 [
1!
#230
0!
#235
b1101100 -
b1101100 H
b1101100 Y
b1101100 /
b1101100 I
b1101100 \
b1101000 +
b1101000 F
b1101000 G
b1101000 .
b1101000 E
b1101000 T
b1101000 Z
b1101000 [
1!
#240
0!
#245
b1110000 -
b1110000 H
b1110000 Y
b1110000 /
b1110000 I
b1110000 \
b1101100 +
b1101100 F
b1101100 G
b1101100 .
b1101100 E
b1101100 T
b1101100 Z
b1101100 [
1!
#250
0!
#255
b1110100 -
b1110100 H
b1110100 Y
b1110100 /
b1110100 I
b1110100 \
b1110000 +
b1110000 F
b1110000 G
b1110000 .
b1110000 E
b1110000 T
b1110000 Z
b1110000 [
1!
#260
0!
#265
b1111000 -
b1111000 H
b1111000 Y
b1111000 /
b1111000 I
b1111000 \
b1110100 +
b1110100 F
b1110100 G
b1110100 .
b1110100 E
b1110100 T
b1110100 Z
b1110100 [
1!
#270
0!
#275
b1111100 -
b1111100 H
b1111100 Y
b1111100 /
b1111100 I
b1111100 \
b1111000 +
b1111000 F
b1111000 G
b1111000 .
b1111000 E
b1111000 T
b1111000 Z
b1111000 [
1!
#280
0!
#285
b10000000 -
b10000000 H
b10000000 Y
b10000000 /
b10000000 I
b10000000 \
b1111100 +
b1111100 F
b1111100 G
b1111100 .
b1111100 E
b1111100 T
b1111100 Z
b1111100 [
1!
#290
0!
#295
b10000100 -
b10000100 H
b10000100 Y
b10000100 /
b10000100 I
b10000100 \
b10000000 +
b10000000 F
b10000000 G
b10000000 .
b10000000 E
b10000000 T
b10000000 Z
b10000000 [
1!
#300
0!
#305
b10001000 -
b10001000 H
b10001000 Y
b10001000 /
b10001000 I
b10001000 \
b10000100 +
b10000100 F
b10000100 G
b10000100 .
b10000100 E
b10000100 T
b10000100 Z
b10000100 [
1!
#310
0!
#315
b10001100 -
b10001100 H
b10001100 Y
b10001100 /
b10001100 I
b10001100 \
b10001000 +
b10001000 F
b10001000 G
b10001000 .
b10001000 E
b10001000 T
b10001000 Z
b10001000 [
1!
#320
0!
#325
b10010000 -
b10010000 H
b10010000 Y
b10010000 /
b10010000 I
b10010000 \
b10001100 +
b10001100 F
b10001100 G
b10001100 .
b10001100 E
b10001100 T
b10001100 Z
b10001100 [
1!
#330
0!
#335
b10010100 -
b10010100 H
b10010100 Y
b10010100 /
b10010100 I
b10010100 \
b10010000 +
b10010000 F
b10010000 G
b10010000 .
b10010000 E
b10010000 T
b10010000 Z
b10010000 [
1!
#340
0!
#345
b10011000 -
b10011000 H
b10011000 Y
b10011000 /
b10011000 I
b10011000 \
b10010100 +
b10010100 F
b10010100 G
b10010100 .
b10010100 E
b10010100 T
b10010100 Z
b10010100 [
1!
#350
0!
#355
b10011100 -
b10011100 H
b10011100 Y
b10011100 /
b10011100 I
b10011100 \
b10011000 +
b10011000 F
b10011000 G
b10011000 .
b10011000 E
b10011000 T
b10011000 Z
b10011000 [
1!
#360
0!
#365
b10100000 -
b10100000 H
b10100000 Y
b10100000 /
b10100000 I
b10100000 \
b10011100 +
b10011100 F
b10011100 G
b10011100 .
b10011100 E
b10011100 T
b10011100 Z
b10011100 [
1!
#370
0!
#375
b10100100 -
b10100100 H
b10100100 Y
b10100100 /
b10100100 I
b10100100 \
b10100000 +
b10100000 F
b10100000 G
b10100000 .
b10100000 E
b10100000 T
b10100000 Z
b10100000 [
1!
#380
0!
#385
b10101000 -
b10101000 H
b10101000 Y
b10101000 /
b10101000 I
b10101000 \
b10100100 +
b10100100 F
b10100100 G
b10100100 .
b10100100 E
b10100100 T
b10100100 Z
b10100100 [
1!
#390
0!
#395
b10101100 -
b10101100 H
b10101100 Y
b10101100 /
b10101100 I
b10101100 \
b10101000 +
b10101000 F
b10101000 G
b10101000 .
b10101000 E
b10101000 T
b10101000 Z
b10101000 [
1!
#400
0!
#405
b10110000 -
b10110000 H
b10110000 Y
b10110000 /
b10110000 I
b10110000 \
b10101100 +
b10101100 F
b10101100 G
b10101100 .
b10101100 E
b10101100 T
b10101100 Z
b10101100 [
1!
